CPU_test.vcd
$date
	Sun Dec 01 19:39:48 2019
$end
$version
	Icarus Verilog
$end
$timescale
	1ps
$end
$scope module CPU_test $end
$var reg 1 ! clk $end
$var reg 1 " reset $end
$scope module uut $end
$var wire 1 # Bsrc $end
$var wire 1 $ SigA $end
$var wire 1 ! clk $end
$var wire 1 % exception_mem_4byte $end
$var wire 1 & exception_opcode $end
$var wire 1 " reset $end
$var wire 32 ' wr_data_WB [31:0] $end
$var wire 32 ( to_PC [31:0] $end
$var wire 96 ) to_IF_ID [95:0] $end
$var wire 226 * to_ID_EX [225:0] $end
$var wire 120 + to_EX_MEM [119:0] $end
$var wire 1 , stall_MEM_WB $end
$var wire 1 - stall_IF_ID $end
$var wire 1 . stall_ID_EX $end
$var wire 1 / stall_EX_MEM $end
$var wire 32 0 rs2_data_fin_EX [31:0] $end
$var wire 32 1 rs2_data_MEM [31:0] $end
$var wire 32 2 rs2_data_ID [31:0] $end
$var wire 32 3 rs2_data_EX [31:0] $end
$var wire 32 4 rs2_branch_ID [31:0] $end
$var wire 5 5 rs2_ID [4:0] $end
$var wire 5 6 rs2_EX [4:0] $end
$var wire 32 7 rs1_data_ID [31:0] $end
$var wire 32 8 rs1_branch_ID [31:0] $end
$var wire 5 9 rs1_ID [4:0] $end
$var wire 5 : rs1_EX [4:0] $end
$var wire 5 ; rd_WB [4:0] $end
$var wire 5 < rd_MEM [4:0] $end
$var wire 5 = rd_ID [4:0] $end
$var wire 5 > rd_EX [4:0] $end
$var wire 1 ? isIType_WB $end
$var wire 1 @ isIType_MEM $end
$var wire 1 A isIType_ID $end
$var wire 1 B isIType_EX $end
$var wire 25 C imm_in [24:0] $end
$var wire 3 D funct3_WB [2:0] $end
$var wire 3 E funct3_MEM [2:0] $end
$var wire 3 F funct3_ID [2:0] $end
$var wire 3 G funct3_EX [2:0] $end
$var wire 1 H flush_MEM_WB $end
$var wire 1 I flush_IF_ID $end
$var wire 1 J flush_ID_EX $end
$var wire 1 K flush_EX_MEM $end
$var wire 1 L comp_result_ID $end
$var wire 1 M SECtrl_WB $end
$var wire 1 N SECtrl_MEM $end
$var wire 1 O SECtrl_ID $end
$var wire 1 P SECtrl_EX $end
$var wire 1 Q RegWrite_WB $end
$var wire 1 R RegWrite_MEM $end
$var wire 1 S RegWrite_ID $end
$var wire 1 T RegWrite_EX $end
$var wire 32 U ReadData_WB [31:0] $end
$var wire 32 V ReadData_MEM [31:0] $end
$var wire 32 W PC_IF [31:0] $end
$var wire 32 X PC_ID [31:0] $end
$var wire 32 Y PC_EX [31:0] $end
$var wire 32 Z PC_4_WB [31:0] $end
$var wire 32 [ PC_4_MEM [31:0] $end
$var wire 32 \ PC_4_IF [31:0] $end
$var wire 32 ] PC_4_ID [31:0] $end
$var wire 32 ^ PC_4_EX [31:0] $end
$var wire 1 _ PCWrite $end
$var wire 32 ` Op2_ID [31:0] $end
$var wire 32 a Op2_EX [31:0] $end
$var wire 32 b Op1_ID [31:0] $end
$var wire 32 c Op1_EX [31:0] $end
$var wire 1 d MemtoReg_WB $end
$var wire 1 e MemtoReg_MEM $end
$var wire 1 f MemtoReg_ID $end
$var wire 1 g MemtoReg_EX $end
$var wire 1 h MemWrite_WB $end
$var wire 1 i MemWrite_MEM $end
$var wire 1 j MemWrite_ID $end
$var wire 1 k MemWrite_EX $end
$var wire 1 l MemRead_WB $end
$var wire 1 m MemRead_MEM $end
$var wire 1 n MemRead_ID $end
$var wire 1 o MemRead_EX $end
$var wire 32 p Lctrl_op_ID [31:0] $end
$var wire 1 q LCtrl_WB $end
$var wire 1 r LCtrl_MEM $end
$var wire 1 s LCtrl_ID $end
$var wire 1 t LCtrl_EX $end
$var wire 1 u Jump_WB $end
$var wire 1 v Jump_MEM $end
$var wire 1 w Jump_ID $end
$var wire 1 x Jump_EX $end
$var wire 32 y Imm_ID [31:0] $end
$var wire 32 z Imm_EX [31:0] $end
$var wire 3 { ImmType_WB [2:0] $end
$var wire 3 | ImmType_MEM [2:0] $end
$var wire 3 } ImmType_ID [2:0] $end
$var wire 3 ~ ImmType_EX [2:0] $end
$var wire 32 !" I_IF [31:0] $end
$var wire 32 "" I_ID [31:0] $end
$var wire 1 #" I_30_WB $end
$var wire 1 $" I_30_MEM $end
$var wire 1 %" I_30_ID $end
$var wire 1 &" I_30_EX $end
$var wire 1 '" I_12_WB $end
$var wire 1 (" I_12_MEM $end
$var wire 1 )" I_12_ID $end
$var wire 1 *" I_12_EX $end
$var wire 2 +" ForwardE [1:0] $end
$var wire 2 ," ForwardD [1:0] $end
$var wire 2 -" ForwardC [1:0] $end
$var wire 2 ." ForwardB [1:0] $end
$var wire 2 /" ForwardA [1:0] $end
$var wire 9 0" Ctrl_in [8:0] $end
$var wire 19 1" Ctrl_WB [18:0] $end
$var wire 19 2" Ctrl_MEM [18:0] $end
$var wire 19 3" Ctrl_ID [18:0] $end
$var wire 19 4" Ctrl_EX [18:0] $end
$var wire 1 5" Branch_WB $end
$var wire 1 6" Branch_MEM $end
$var wire 1 7" Branch_ID $end
$var wire 1 8" Branch_EX $end
$var wire 32 9" BrData_IF [31:0] $end
$var wire 1 :" BType_ID $end
$var wire 32 ;" ALU_op2 [31:0] $end
$var wire 32 <" ALU_op1 [31:0] $end
$var wire 32 =" ALU_WB [31:0] $end
$var wire 32 >" ALU_MEM [31:0] $end
$var wire 32 ?" ALU_EX [31:0] $end
$var wire 1 @" ALUSrc2_WB $end
$var wire 1 A" ALUSrc2_MEM $end
$var wire 1 B" ALUSrc2_ID $end
$var wire 1 C" ALUSrc2_EX $end
$var wire 1 D" ALUSrc1_WB $end
$var wire 1 E" ALUSrc1_MEM $end
$var wire 1 F" ALUSrc1_ID $end
$var wire 1 G" ALUSrc1_EX $end
$var wire 4 H" ALUCtrl_EX [3:0] $end
$scope module ALU $end
$var wire 32 I" Op2 [31:0] $end
$var wire 32 J" Op1 [31:0] $end
$var wire 4 K" ALUCtrl [3:0] $end
$var reg 32 L" Out [31:0] $end
$upscope $end
$scope module ALUCTRL $end
$var wire 1 8" Branch $end
$var wire 1 &" I $end
$var wire 1 $ SigA $end
$var wire 3 M" func3 [2:0] $end
$var wire 1 B isItype $end
$var wire 4 N" ALUCtrl [3:0] $end
$upscope $end
$scope module BR1_MUX $end
$var wire 32 O" in2 [31:0] $end
$var wire 32 P" in4 [31:0] $end
$var wire 2 Q" select [1:0] $end
$var wire 32 R" in3 [31:0] $end
$var wire 32 S" in1 [31:0] $end
$var reg 32 T" Out [31:0] $end
$upscope $end
$scope module BR2_MUX $end
$var wire 32 U" in2 [31:0] $end
$var wire 32 V" in4 [31:0] $end
$var wire 2 W" select [1:0] $end
$var wire 32 X" in3 [31:0] $end
$var wire 32 Y" in1 [31:0] $end
$var reg 32 Z" Out [31:0] $end
$upscope $end
$scope module BRANCH_SELECT $end
$var wire 1 [" in1 $end
$var wire 1 )" select $end
$var wire 1 L in2 $end
$var reg 1 :" Out $end
$upscope $end
$scope module Ctrl_unit $end
$var wire 9 \" in [8:0] $end
$var wire 5 ]" opcode [4:0] $end
$var wire 3 ^" funct3 [2:0] $end
$var wire 1 _" I_30 $end
$var wire 19 `" Ctrl [18:0] $end
$var reg 1 a" ALUSrc1 $end
$var reg 1 b" ALUSrc2 $end
$var reg 1 c" Branch $end
$var reg 1 d" I_12 $end
$var reg 3 e" ImmType [2:0] $end
$var reg 1 f" Jump $end
$var reg 1 g" Lctrl $end
$var reg 1 h" MemRead $end
$var reg 1 i" MemWrite $end
$var reg 1 j" MemtoReg $end
$var reg 1 k" RegWrite $end
$var reg 1 l" SignExtendCtrl $end
$var reg 1 m" isItype $end
$upscope $end
$scope module Data_MEM $end
$var wire 5 n" Ad [4:0] $end
$var wire 32 o" Data [31:0] $end
$var wire 1 ! clk $end
$var wire 1 m r $end
$var wire 1 " reset $end
$var wire 1 i w $end
$var reg 32 p" Out [31:0] $end
$var integer 32 q" i [31:0] $end
$upscope $end
$scope module EX_MEM $end
$var wire 1 ! clk $end
$var wire 1 " reset $end
$var wire 1 / stall $end
$var wire 120 r" in [119:0] $end
$var reg 120 s" Out [119:0] $end
$upscope $end
$scope module EX_MEM_FLUSH $end
$var wire 120 t" in1 [119:0] $end
$var wire 120 u" in2 [119:0] $end
$var wire 1 K select $end
$var reg 120 v" Out [119:0] $end
$upscope $end
$scope module Forw_unit $end
$var wire 1 G" ALUSrc1 $end
$var wire 1 C" ALUSrc2 $end
$var wire 1 k MemWrite $end
$var wire 1 R RW_MEM $end
$var wire 1 Q RW_WB $end
$var wire 1 7" branch_ID $end
$var wire 5 w" rd_MEM [4:0] $end
$var wire 5 x" rd_WB [4:0] $end
$var wire 5 y" rs1_EX [4:0] $end
$var wire 5 z" rs1_ID [4:0] $end
$var wire 5 {" rs2_EX [4:0] $end
$var wire 5 |" rs2_ID [4:0] $end
$var reg 2 }" Forward1 [1:0] $end
$var reg 2 ~" Forward2 [1:0] $end
$var reg 2 !# Forward3 [1:0] $end
$var reg 2 "# Forward4 [1:0] $end
$var reg 2 ## Forward5 [1:0] $end
$upscope $end
$scope module HAZARD $end
$var wire 1 7" Branch_ID $end
$var wire 1 v Jump_MEM $end
$var wire 1 o MemRead_EX $end
$var wire 1 m MemRead_MEM $end
$var wire 5 $# rd_EX [4:0] $end
$var wire 5 %# rd_MEM [4:0] $end
$var wire 5 &# rs1_ID [4:0] $end
$var wire 5 '# rs2_ID [4:0] $end
$var reg 1 _ PCWrite $end
$var reg 1 K flush_EX_MEM $end
$var reg 1 J flush_ID_EX $end
$var reg 1 I flush_IF_ID $end
$var reg 1 H flush_MEM_WB $end
$var reg 1 / stall_EX_MEM $end
$var reg 1 . stall_ID_EX $end
$var reg 1 - stall_IF_ID $end
$var reg 1 , stall_MEM_WB $end
$upscope $end
$scope module ID_EX $end
$var wire 1 ! clk $end
$var wire 1 " reset $end
$var wire 1 . stall $end
$var wire 226 (# in [225:0] $end
$var reg 226 )# Out [225:0] $end
$upscope $end
$scope module ID_EX_FLUSH $end
$var wire 226 *# in1 [225:0] $end
$var wire 226 +# in2 [225:0] $end
$var wire 1 J select $end
$var reg 226 ,# Out [225:0] $end
$upscope $end
$scope module IF_ID $end
$var wire 1 ! clk $end
$var wire 1 " reset $end
$var wire 1 - stall $end
$var wire 96 -# in [95:0] $end
$var reg 96 .# Out [95:0] $end
$upscope $end
$scope module IF_ID_FLUSH $end
$var wire 96 /# in1 [95:0] $end
$var wire 96 0# in2 [95:0] $end
$var wire 1 I select $end
$var reg 96 1# Out [95:0] $end
$upscope $end
$scope module Inst_mem $end
$var wire 7 2# Ad [6:0] $end
$var wire 1 ! clk $end
$var wire 1 " reset $end
$var reg 32 3# Out [31:0] $end
$var integer 32 4# i [31:0] $end
$upscope $end
$scope module MEM_WB $end
$var wire 1 ! clk $end
$var wire 120 5# in [119:0] $end
$var wire 1 " reset $end
$var wire 1 6# stall $end
$var reg 120 7# Out [119:0] $end
$upscope $end
$scope module MUX1_ID $end
$var wire 32 8# in1 [31:0] $end
$var wire 32 9# in2 [31:0] $end
$var wire 1 s select $end
$var reg 32 :# Out [31:0] $end
$upscope $end
$scope module MUX2_ID $end
$var wire 32 ;# in2 [31:0] $end
$var wire 1 F" select $end
$var wire 32 <# in1 [31:0] $end
$var reg 32 =# Out [31:0] $end
$upscope $end
$scope module MUX3_ID $end
$var wire 1 B" select $end
$var wire 32 ># in2 [31:0] $end
$var wire 32 ?# in1 [31:0] $end
$var reg 32 @# Out [31:0] $end
$upscope $end
$scope module OP1_MUX $end
$var wire 32 A# in1 [31:0] $end
$var wire 32 B# in2 [31:0] $end
$var wire 32 C# in4 [31:0] $end
$var wire 2 D# select [1:0] $end
$var wire 32 E# in3 [31:0] $end
$var reg 32 F# Out [31:0] $end
$upscope $end
$scope module OP2_MUX $end
$var wire 32 G# in1 [31:0] $end
$var wire 32 H# in2 [31:0] $end
$var wire 32 I# in4 [31:0] $end
$var wire 2 J# select [1:0] $end
$var wire 32 K# in3 [31:0] $end
$var reg 32 L# Out [31:0] $end
$upscope $end
$scope module PC $end
$var wire 1 ! clk $end
$var wire 1 _ en $end
$var wire 1 " reset $end
$var wire 32 M# in [31:0] $end
$var reg 32 N# Out [31:0] $end
$upscope $end
$scope module PC_in $end
$var wire 32 O# in1 [31:0] $end
$var wire 32 P# in2 [31:0] $end
$var wire 32 Q# in3 [31:0] $end
$var wire 32 R# in4 [31:0] $end
$var wire 2 S# select [1:0] $end
$var reg 32 T# Out [31:0] $end
$upscope $end
$scope module RS2_MUX $end
$var wire 32 U# in1 [31:0] $end
$var wire 32 V# in2 [31:0] $end
$var wire 32 W# in4 [31:0] $end
$var wire 2 X# select [1:0] $end
$var wire 32 Y# in3 [31:0] $end
$var reg 32 Z# Out [31:0] $end
$upscope $end
$scope module Reg_File $end
$var wire 5 [# Ad1 [4:0] $end
$var wire 5 \# Ad2 [4:0] $end
$var wire 1 Q Wr $end
$var wire 5 ]# WrAd [4:0] $end
$var wire 1 ! clk $end
$var wire 1 " reset $end
$var wire 32 ^# WrData [31:0] $end
$var reg 32 _# Out1 [31:0] $end
$var reg 32 `# Out2 [31:0] $end
$var integer 32 a# i [31:0] $end
$upscope $end
$scope module WBMUX $end
$var wire 32 b# in1 [31:0] $end
$var wire 32 c# in2 [31:0] $end
$var wire 32 d# in3 [31:0] $end
$var wire 32 e# in4 [31:0] $end
$var wire 2 f# select [1:0] $end
$var reg 32 g# Out [31:0] $end
$upscope $end
$scope module branch_comp $end
$var wire 32 h# in1 [31:0] $end
$var wire 32 i# in2 [31:0] $end
$var wire 2 j# type [1:0] $end
$var reg 1 L Out $end
$upscope $end
$scope module imm_gen $end
$var wire 3 k# ImmType [2:0] $end
$var wire 1 O SignExtendCtrl $end
$var wire 25 l# in [31:7] $end
$var wire 32 m# imm [31:0] $end
$var wire 32 n# d [31:0] $end
$var wire 32 o# c [31:0] $end
$var wire 32 p# b [31:0] $end
$var wire 12 q# a [11:0] $end
$scope module SE1 $end
$var wire 1 O signExtend $end
$var wire 32 r# out [31:0] $end
$var wire 12 s# in [11:0] $end
$upscope $end
$scope module SE2 $end
$var wire 20 t# in [19:0] $end
$var wire 1 O signExtend $end
$var wire 32 u# out [31:0] $end
$upscope $end
$scope module SE3 $end
$var wire 5 v# in [4:0] $end
$var wire 1 O signExtend $end
$var wire 32 w# out [31:0] $end
$upscope $end
$scope module m8_12 $end
$var wire 12 x# in1 [11:0] $end
$var wire 12 y# in2 [11:0] $end
$var wire 12 z# in3 [11:0] $end
$var wire 12 {# in4 [11:0] $end
$var wire 12 |# in5 [11:0] $end
$var wire 12 }# in6 [11:0] $end
$var wire 12 ~# in7 [11:0] $end
$var wire 12 !$ in8 [11:0] $end
$var wire 3 "$ select [2:0] $end
$var reg 12 #$ Out [11:0] $end
$upscope $end
$scope module m8_32 $end
$var wire 32 $$ in1 [31:0] $end
$var wire 32 %$ in2 [31:0] $end
$var wire 32 &$ in3 [31:0] $end
$var wire 32 '$ in4 [31:0] $end
$var wire 32 ($ in5 [31:0] $end
$var wire 32 )$ in6 [31:0] $end
$var wire 32 *$ in7 [31:0] $end
$var wire 32 +$ in8 [31:0] $end
$var wire 3 ,$ select [2:0] $end
$var reg 32 -$ Out [31:0] $end
$upscope $end
$upscope $end
$upscope $end
$upscope $end
$enddefinitions $end
#0
$dumpvars
bx -$
bx ,$
b0 +$
b0 *$
bx )$
bx0 ($
bx000000000000 '$
bx &$
bx %$
bx0 $$
bx #$
bx "$
b0 !$
b0 ~#
b0 }#
b0 |#
b0 {#
bx z#
bx y#
bx x#
bx w#
bx v#
bx u#
bx t#
bx s#
bx r#
bx q#
bx p#
bx o#
bx n#
bx m#
bx l#
bx k#
bx j#
bx i#
bx h#
bx g#
bx f#
b0 e#
bx d#
bx c#
bx b#
bx a#
bx `#
bx _#
bx ^#
bx ]#
bx \#
bx [#
bx Z#
bx Y#
bx X#
b0 W#
bx V#
bx U#
bx T#
bx S#
bx0 R#
bx0 Q#
bx P#
bx O#
bx N#
bx M#
bx L#
bx K#
bx J#
b0 I#
bx H#
bx G#
bx F#
bx E#
bx D#
b0 C#
bx B#
bx A#
bx @#
bx ?#
bx >#
bx =#
bx <#
bx ;#
bx :#
b0 9#
bx 8#
bx 7#
06#
bx 5#
bx 4#
b0 3#
bx 2#
bx 1#
b10011 0#
bx00000000000000000000000000000000 /#
bx .#
bx -#
bx ,#
b0 +#
bx *#
bx )#
bx (#
bx '#
bx &#
bx %#
bx $#
bx ##
bx "#
bx !#
bx ~"
bx }"
bx |"
bx {"
bx z"
bx y"
bx x"
bx w"
bx v"
b0 u"
bx t"
bx s"
bx r"
bx q"
bx p"
bx o"
bx n"
xm"
xl"
xk"
xj"
xi"
xh"
xg"
xf"
bx e"
xd"
xc"
xb"
xa"
bx `"
x_"
bx ^"
bx ]"
bx \"
x["
bx Z"
bx Y"
bx X"
bx W"
b0 V"
bx U"
bx T"
bx S"
bx R"
bx Q"
b0 P"
bx O"
bx N"
bx M"
bx L"
bx K"
bx J"
bx I"
bx H"
xG"
xF"
xE"
xD"
xC"
xB"
xA"
x@"
bx ?"
bx >"
bx ="
bx <"
bx ;"
x:"
bx 9"
x8"
x7"
x6"
x5"
bx 4"
bx 3"
bx 2"
bx 1"
bx 0"
bx /"
bx ."
bx -"
bx ,"
bx +"
x*"
x)"
x("
x'"
x&"
x%"
x$"
x#"
bx ""
b0 !"
bx ~
bx }
bx |
bx {
bx z
bx y
xx
xw
xv
xu
xt
xs
xr
xq
bx p
xo
xn
xm
xl
xk
xj
xi
xh
xg
xf
xe
xd
bx c
bx b
bx a
bx `
x_
bx ^
bx ]
bx \
bx [
bx Z
bx Y
bx X
bx W
bx V
bx U
xT
xS
xR
xQ
xP
xO
xN
xM
xL
xK
xJ
xI
xH
bx G
bx F
bx E
bx D
bx C
xB
xA
x@
x?
bx >
bx =
bx <
bx ;
bx :
bx 9
bx 8
bx 7
bx 6
bx 5
bx 4
bx 3
bx 2
bx 1
bx 0
x/
x.
x-
x,
bx +
bx *
bx )
bx (
bx '
0&
x%
x$
x#
0"
0!
$end
#5000
x&
bx \
bx O#
bx W
bx N#
bx .#
bx )#
bx s"
bx00000000000000000000000000000000xxxxx 5#
b0 V
b0 p"
bx 7#
bx /#
bx !"
bx 3#
bx *#
bx 2
bx Y"
bx ?#
bx `#
bx 7
bx S"
bx <#
bx _#
1!
#10000
0!
#15000
b0 U
b0 d#
bx00000000000000000000000000000000xxxxx 7#
bx s"
bx )#
bx .#
bx /#
bx \
bx O#
bx W
bx N#
bx *#
bx 2
bx Y"
bx ?#
bx `#
bx 7
bx S"
bx <#
bx _#
1!
#20000
0!
#25000
bx /#
bx \
bx O#
bx W
bx N#
bx .#
bx )#
bx s"
bx00000000000000000000000000000000xxxxx 7#
bx *#
bx 2
bx Y"
bx ?#
bx `#
bx 7
bx S"
bx <#
bx _#
1!
#30000
0!
#35000
bx00000000000000000000000000000000xxxxx 7#
bx s"
bx )#
bx .#
bx /#
bx \
bx O#
bx W
bx N#
bx *#
bx 2
bx Y"
bx ?#
bx `#
bx 7
bx S"
bx <#
bx _#
1!
#40000
0!
#45000
bx /#
bx \
bx O#
bx W
bx N#
bx .#
bx )#
bx s"
bx00000000000000000000000000000000xxxxx 7#
bx *#
bx 2
bx Y"
bx ?#
bx `#
bx 7
bx S"
bx <#
bx _#
1!
#50000
0!
#55000
bx00000000000000000000000000000000xxxxx 7#
bx s"
bx )#
bx .#
bx /#
bx \
bx O#
bx W
bx N#
bx *#
bx 2
bx Y"
bx ?#
bx `#
bx 7
bx S"
bx <#
bx _#
1!
#60000
0!
#65000
bx /#
bx \
bx O#
bx W
bx N#
bx .#
bx )#
bx s"
bx00000000000000000000000000000000xxxxx 7#
bx *#
bx 2
bx Y"
bx ?#
bx `#
bx 7
bx S"
bx <#
bx _#
1!
#70000
0!
#75000
bx00000000000000000000000000000000xxxxx 7#
bx s"
bx )#
bx .#
bx /#
bx \
bx O#
bx W
bx N#
bx *#
bx 2
bx Y"
bx ?#
bx `#
bx 7
bx S"
bx <#
bx _#
1!
#80000
0!
#85000
bx /#
bx \
bx O#
bx W
bx N#
bx .#
bx )#
bx s"
bx00000000000000000000000000000000xxxxx 7#
bx *#
bx 2
bx Y"
bx ?#
bx `#
bx 7
bx S"
bx <#
bx _#
1!
#90000
0!
#95000
bx00000000000000000000000000000000xxxxx 7#
bx s"
bx )#
bx .#
bx /#
bx \
bx O#
bx W
bx N#
bx *#
bx 2
bx Y"
bx ?#
bx `#
bx 7
bx S"
bx <#
bx _#
1!
#100000
0&
bx00000000000000000000000000000000 /#
b0 !"
b0 3#
b10000000 4#
0!
1"
#105000
b0 `
b0 @#
b0 R#
b0 Q#
b0 9"
b0 P#
b0 y
b0 >#
b0 m#
b0 -$
b0 $$
b100 (
b100 M#
b100 T#
b0 p
b0 :#
b0 ;#
b0 p#
b0 r#
b0 %$
b0 &$
b0 q#
b0 s#
b0 #$
b0 b
b0 =#
b0xxxxxxxxxxxxxxxxxxxxxxxxxxxxxxxx00000 +
b0xxxxxxxxxxxxxxxxxxxxxxxxxxxxxxxx00000 r"
b0xxxxxxxxxxxxxxxxxxxxxxxxxxxxxxxx00000 v"
b1000111101001000000000000000000000000000000000000000000000000000000000000000000000000000000000000000000000000000000000000000000000000000000000000000000000000000000000000000000000000000000000000000000000000000000000000000 *
b1000111101001000000000000000000000000000000000000000000000000000000000000000000000000000000000000000000000000000000000000000000000000000000000000000000000000000000000000000000000000000000000000000000000000000000000000000 (#
b1000111101001000000000000000000000000000000000000000000000000000000000000000000000000000000000000000000000000000000000000000000000000000000000000000000000000000000000000000000000000000000000000000000000000000000000000000 ,#
b1000000000000000000000000000000000000000000000000000000000000000000 )
b1000000000000000000000000000000000000000000000000000000000000000000 -#
b1000000000000000000000000000000000000000000000000000000000000000000 1#
b0 <"
b0 J"
b0 F#
b0 ;"
b0 I"
b0 L#
0#
0)"
1A
0s
0w
1O
0j
1n
1f
1S
b1 }
b1 k#
b1 "$
b1 ,$
07"
1B"
0F"
xL
b0 ?"
b0 L"
0d"
1m"
0g"
0f"
1l"
0i"
1h"
1j"
1k"
b1 e"
0c"
1b"
0a"
0H
0K
0J
0I
0,
0/
0.
0-
1_
b0 ."
b0 ~"
b0 J#
b0 /"
b0 }"
b0 D#
b0 '
b0 R"
b0 X"
b0 E#
b0 K#
b0 Y#
b0 ^#
b0 g#
b0 j#
b0 H"
b0 K"
b0 N"
0%"
b0 F
b0 ($
0_"
b1000111101001 3"
b1000111101001 `"
b0 ^"
b0 ]"
b0 x#
b0 y#
b0 z#
b0 o#
b0 u#
b0 t#
b0 n#
b0 w#
b0 )$
b0 v#
b0 '$
0$
0%
b0 9
b0 z"
b0 &#
b0 [#
b0 5
b0 |"
b0 '#
b0 \#
b0 =
b0 0"
b0 \"
b0 C
b0 l#
0&"
0*"
b0 G
b0 M"
0G"
0C"
08"
b0 ~
0T
0g
0o
0k
0P
b0 S#
0x
0t
0B
b0 n"
0$"
0("
b0 E
0E"
0A"
06"
b0 |
0R
0e
0m
0i
0N
0v
0r
0@
0#"
0'"
b0 D
0D"
0@"
05"
b0 {
0Q
0d
0l
0h
0M
b0 f#
0u
0q
0?
b0 2#
b0 ""
b0 X
b0 8#
b0 ]
b0 6
b0 {"
b0 :
b0 y"
b0 >
b0 $#
b0 z
b0 3
b0 a
b0 G#
b0 c
b0 A#
b0 U#
b0 ^
b0 Y
b0xxxxxxxxxxxxxxxxxxxxxxxxxxxxxxxx00000 t"
b0 4"
b0 <
b0 w"
b0 %#
b0 1
b0 o"
b0 >"
b0 O"
b0 U"
b0 B#
b0 H#
b0 V#
b0 [
b0 5#
b0 2"
b0 ;
b0 x"
b0 ]#
b0 ="
b0 b#
b0 Z
b0 c#
b0 1"
b1000000000000000000000000000000000000000000000000000000000000000000 /#
b100 \
b100 O#
b0 W
b0 N#
b0 .#
b0 )#
b0 s"
b0 7#
b1000111101001000000000000000000000000000000000000000000000000000000000000000000000000000000000000000000000000000000000000000000000000000000000000000000000000000000000000000000000000000000000000000000000000000000000000000 *#
b0 2
b0 Y"
b0 ?#
b0 `#
b0 7
b0 S"
b0 <#
b0 _#
b100000 q"
b100000 a#
1!
#110000
b1000000000000000000000000000000000000000000010101011000010110010011 )
b1000000000000000000000000000000000000000000010101011000010110010011 -#
b1000000000000000000000000000000000000000000010101011000010110010011 1#
1&
b1000000000000000000000000000000000000000000010101011000010110010011 /#
b10101011000010110010011 !"
b10101011000010110010011 3#
0!
0"
#115000
b101 `
b101 @#
b101 9"
b101 P#
b101 y
b101 >#
b101 m#
b101 -$
b1010 $$
0n
0f
b101 p#
b101 r#
b101 %$
b101 &$
b101 q#
b101 s#
b101 #$
1m"
0h"
0j"
1k"
b1000110001001 3"
b1000110001001 `"
1b"
b10001111010010000000000000000000000000000000000000000000000000000000000000000xxxxxxxxxxxxxxxxxxxxxxxxxxxxxxxx00000 +
b10001111010010000000000000000000000000000000000000000000000000000000000000000xxxxxxxxxxxxxxxxxxxxxxxxxxxxxxxx00000 r"
b10001111010010000000000000000000000000000000000000000000000000000000000000000xxxxxxxxxxxxxxxxxxxxxxxxxxxxxxxx00000 v"
b1000110001001000000000000000000000000000000000000000000000000000000000000010000000000000000000000000000000000000000000000000000000000000001010000000000000000000000000000000000000000000000000000000000000101010110101100101 *
b1000110001001000000000000000000000000000000000000000000000000000000000000010000000000000000000000000000000000000000000000000000000000000001010000000000000000000000000000000000000000000000000000000000000101010110101100101 (#
b1000110001001000000000000000000000000000000000000000000000000000000000000010000000000000000000000000000000000000000000000000000000000000001010000000000000000000000000000000000000000000000000000000000000101010110101100101 ,#
b10000000000000000000000000000000010000000000010101011000010110010011 )
b10000000000000000000000000000000010000000000010101011000010110010011 -#
b10000000000000000000000000000000010000000000010101011000010110010011 1#
b1000 (
b1000 M#
b1000 T#
1$
b1011000100000000100 ($
b100 ]"
b10000000101 x#
b101 y#
b1011 z#
b101100010000000010 o#
b101100010000000010 u#
b101100010000000010 t#
b101 n#
b101 w#
b101 )$
b101 v#
b10101011000000000000000 '$
1C"
b1 ~
1T
1g
1o
1P
1B
b1011 9
b1011 z"
b1011 &#
b1011 [#
b101 5
b101 |"
b101 '#
b101 \#
b1011 =
b100 0"
b100 \"
b1010101100001011 C
b1010101100001011 l#
bx 1
bx o"
b10001111010010000000000000000000000000000000000000000000000000000000000000000xxxxxxxxxxxxxxxxxxxxxxxxxxxxxxxx00000 t"
b1000111101001 4"
b10101011000010110010011 ""
b1000110001001000000000000000000000000000000000000000000000000000000000000010000000000000000000000000000000000000000000000000000000000000001010000000000000000000000000000000000000000000000000000000000000101010110101100101 *#
b100 ]
b100 2#
b0xxxxxxxxxxxxxxxxxxxxxxxxxxxxxxxx00000 s"
b1000111101001000000000000000000000000000000000000000000000000000000000000000000000000000000000000000000000000000000000000000000000000000000000000000000000000000000000000000000000000000000000000000000000000000000000000000 )#
b1000000000000000000000000000000000000000000010101011000010110010011 .#
b10000000000000000000000000000000010000000000010101011000010110010011 /#
b1000 \
b1000 O#
b100 W
b100 N#
1!
#120000
b10000000000000000000000000000000010000000000000001100000011000010011 )
b10000000000000000000000000000000010000000000000001100000011000010011 -#
b10000000000000000000000000000000010000000000000001100000011000010011 1#
b10000000000000000000000000000000010000000000000001100000011000010011 /#
b1100000011000010011 !"
b1100000011000010011 3#
0!
