CPU_test.vcd
$date
	Tue Nov 19 18:30:46 2019
$end
$version
	Icarus Verilog
$end
$timescale
	1ps
$end
$scope module CPU_test $end
$var reg 1 ! clk $end
$var reg 1 " reset $end
$scope module uut $end
$var wire 1 # Bsrc $end
$var wire 1 $ SigA $end
$var wire 1 ! clk $end
$var wire 1 % exception_mem_4byte $end
$var wire 1 & exception_opcode $end
$var wire 1 " reset $end
$var wire 32 ' wr_data_WB [31:0] $end
$var wire 32 ( to_PC [31:0] $end
$var wire 226 ) to_ID_EX [225:0] $end
$var wire 1 * stall_MEM_WB $end
$var wire 1 + stall_IF_ID $end
$var wire 1 , stall_ID_EX $end
$var wire 1 - stall_EX_MEM $end
$var wire 32 . rs2_data_fin_EX [31:0] $end
$var wire 32 / rs2_data_MEM [31:0] $end
$var wire 32 0 rs2_data_ID [31:0] $end
$var wire 32 1 rs2_data_EX [31:0] $end
$var wire 32 2 rs2_branch_ID [31:0] $end
$var wire 5 3 rs2_ID [4:0] $end
$var wire 5 4 rs2_EX [4:0] $end
$var wire 32 5 rs1_data_ID [31:0] $end
$var wire 32 6 rs1_branch_ID [31:0] $end
$var wire 5 7 rs1_ID [4:0] $end
$var wire 5 8 rs1_EX [4:0] $end
$var wire 5 9 rd_WB [4:0] $end
$var wire 5 : rd_MEM [4:0] $end
$var wire 5 ; rd_ID [4:0] $end
$var wire 5 < rd_EX [4:0] $end
$var wire 1 = isIType_WB $end
$var wire 1 > isIType_MEM $end
$var wire 1 ? isIType_ID $end
$var wire 1 @ isIType_EX $end
$var wire 25 A imm_in [24:0] $end
$var wire 3 B funct3_WB [2:0] $end
$var wire 3 C funct3_MEM [2:0] $end
$var wire 3 D funct3_ID [2:0] $end
$var wire 3 E funct3_EX [2:0] $end
$var wire 1 F flush_MEM_WB $end
$var wire 1 G flush_IF_ID $end
$var wire 1 H flush_ID_EX $end
$var wire 1 I flush_EX_MEM $end
$var wire 1 J comp_result_ID $end
$var wire 1 K SECtrl_WB $end
$var wire 1 L SECtrl_MEM $end
$var wire 1 M SECtrl_ID $end
$var wire 1 N SECtrl_EX $end
$var wire 1 O RegWrite_WB $end
$var wire 1 P RegWrite_MEM $end
$var wire 1 Q RegWrite_ID $end
$var wire 1 R RegWrite_EX $end
$var wire 32 S ReadData_WB [31:0] $end
$var wire 32 T ReadData_MEM [31:0] $end
$var wire 32 U PC_IF [31:0] $end
$var wire 32 V PC_ID [31:0] $end
$var wire 32 W PC_EX [31:0] $end
$var wire 32 X PC_4_WB [31:0] $end
$var wire 32 Y PC_4_MEM [31:0] $end
$var wire 32 Z PC_4_IF [31:0] $end
$var wire 32 [ PC_4_ID [31:0] $end
$var wire 32 \ PC_4_EX [31:0] $end
$var wire 1 ] PCWrite $end
$var wire 32 ^ Op2_ID [31:0] $end
$var wire 32 _ Op2_EX [31:0] $end
$var wire 32 ` Op1_ID [31:0] $end
$var wire 32 a Op1_EX [31:0] $end
$var wire 1 b MemtoReg_WB $end
$var wire 1 c MemtoReg_MEM $end
$var wire 1 d MemtoReg_ID $end
$var wire 1 e MemtoReg_EX $end
$var wire 1 f MemWrite_WB $end
$var wire 1 g MemWrite_MEM $end
$var wire 1 h MemWrite_ID $end
$var wire 1 i MemWrite_EX $end
$var wire 1 j MemRead_WB $end
$var wire 1 k MemRead_MEM $end
$var wire 1 l MemRead_ID $end
$var wire 1 m MemRead_EX $end
$var wire 32 n Lctrl_op_ID [31:0] $end
$var wire 1 o LCtrl_WB $end
$var wire 1 p LCtrl_MEM $end
$var wire 1 q LCtrl_ID $end
$var wire 1 r LCtrl_EX $end
$var wire 1 s Jump_WB $end
$var wire 1 t Jump_MEM $end
$var wire 1 u Jump_ID $end
$var wire 1 v Jump_EX $end
$var wire 32 w Imm_ID [31:0] $end
$var wire 32 x Imm_EX [31:0] $end
$var wire 3 y ImmType_WB [2:0] $end
$var wire 3 z ImmType_MEM [2:0] $end
$var wire 3 { ImmType_ID [2:0] $end
$var wire 3 | ImmType_EX [2:0] $end
$var wire 32 } I_IF [31:0] $end
$var wire 32 ~ I_ID [31:0] $end
$var wire 1 !" I_30_WB $end
$var wire 1 "" I_30_MEM $end
$var wire 1 #" I_30_ID $end
$var wire 1 $" I_30_EX $end
$var wire 1 %" I_12_WB $end
$var wire 1 &" I_12_MEM $end
$var wire 1 '" I_12_ID $end
$var wire 1 (" I_12_EX $end
$var wire 2 )" ForwardE [1:0] $end
$var wire 2 *" ForwardD [1:0] $end
$var wire 2 +" ForwardC [1:0] $end
$var wire 2 ," ForwardB [1:0] $end
$var wire 2 -" ForwardA [1:0] $end
$var wire 9 ." Ctrl_in [8:0] $end
$var wire 19 /" Ctrl_WB [18:0] $end
$var wire 19 0" Ctrl_MEM [18:0] $end
$var wire 19 1" Ctrl_ID [18:0] $end
$var wire 19 2" Ctrl_EX [18:0] $end
$var wire 1 3" Branch_WB $end
$var wire 1 4" Branch_MEM $end
$var wire 1 5" Branch_ID $end
$var wire 1 6" Branch_EX $end
$var wire 32 7" BrData_IF [31:0] $end
$var wire 1 8" BType_ID $end
$var wire 32 9" ALU_op2 [31:0] $end
$var wire 32 :" ALU_op1 [31:0] $end
$var wire 32 ;" ALU_WB [31:0] $end
$var wire 32 <" ALU_MEM [31:0] $end
$var wire 32 =" ALU_EX [31:0] $end
$var wire 1 >" ALUSrc2_WB $end
$var wire 1 ?" ALUSrc2_MEM $end
$var wire 1 @" ALUSrc2_ID $end
$var wire 1 A" ALUSrc2_EX $end
$var wire 1 B" ALUSrc1_WB $end
$var wire 1 C" ALUSrc1_MEM $end
$var wire 1 D" ALUSrc1_ID $end
$var wire 1 E" ALUSrc1_EX $end
$var wire 4 F" ALUCtrl_EX [3:0] $end
$scope module ALU $end
$var wire 32 G" Op2 [31:0] $end
$var wire 32 H" Op1 [31:0] $end
$var wire 4 I" ALUCtrl [3:0] $end
$var reg 32 J" Out [31:0] $end
$upscope $end
$scope module ALUCTRL $end
$var wire 1 6" Branch $end
$var wire 1 $" I $end
$var wire 1 $ SigA $end
$var wire 3 K" func3 [2:0] $end
$var wire 1 @ isItype $end
$var wire 4 L" ALUCtrl [3:0] $end
$upscope $end
$scope module BR1_MUX $end
$var wire 32 M" in2 [31:0] $end
$var wire 32 N" in4 [31:0] $end
$var wire 2 O" select [1:0] $end
$var wire 32 P" in3 [31:0] $end
$var wire 32 Q" in1 [31:0] $end
$var reg 32 R" Out [31:0] $end
$upscope $end
$scope module BR2_MUX $end
$var wire 32 S" in2 [31:0] $end
$var wire 32 T" in4 [31:0] $end
$var wire 2 U" select [1:0] $end
$var wire 32 V" in3 [31:0] $end
$var wire 32 W" in1 [31:0] $end
$var reg 32 X" Out [31:0] $end
$upscope $end
$scope module BRANCH_SELECT $end
$var wire 1 Y" in1 $end
$var wire 1 '" select $end
$var wire 1 J in2 $end
$var reg 1 8" Out $end
$upscope $end
$scope module Ctrl_unit $end
$var wire 9 Z" in [8:0] $end
$var wire 5 [" opcode [4:0] $end
$var wire 3 \" funct3 [2:0] $end
$var wire 1 ]" I_30 $end
$var wire 19 ^" Ctrl [18:0] $end
$var reg 1 _" ALUSrc1 $end
$var reg 1 `" ALUSrc2 $end
$var reg 1 a" Branch $end
$var reg 1 b" I_12 $end
$var reg 3 c" ImmType [2:0] $end
$var reg 1 d" Jump $end
$var reg 1 e" Lctrl $end
$var reg 1 f" MemRead $end
$var reg 1 g" MemWrite $end
$var reg 1 h" MemtoReg $end
$var reg 1 i" RegWrite $end
$var reg 1 j" SignExtendCtrl $end
$var reg 1 k" isItype $end
$upscope $end
$scope module Data_MEM $end
$var wire 5 l" Ad [4:0] $end
$var wire 32 m" Data [31:0] $end
$var wire 1 ! clk $end
$var wire 1 k r $end
$var wire 1 " reset $end
$var wire 1 g w $end
$var reg 32 n" Out [31:0] $end
$var integer 32 o" i [31:0] $end
$upscope $end
$scope module EX_MEM $end
$var wire 1 ! clk $end
$var wire 120 p" in [119:0] $end
$var wire 1 " reset $end
$var wire 1 q" stall $end
$var reg 120 r" Out [119:0] $end
$upscope $end
$scope module Forw_unit $end
$var wire 1 E" ALUSrc1 $end
$var wire 1 A" ALUSrc2 $end
$var wire 1 i MemWrite $end
$var wire 1 R RW_EX $end
$var wire 1 P RW_MEM $end
$var wire 1 O RW_WB $end
$var wire 1 5" branch_ID $end
$var wire 5 s" rd_EX [4:0] $end
$var wire 5 t" rd_MEM [4:0] $end
$var wire 5 u" rd_WB [4:0] $end
$var wire 5 v" rs1_EX [4:0] $end
$var wire 5 w" rs1_ID [4:0] $end
$var wire 5 x" rs2_EX [4:0] $end
$var wire 5 y" rs2_ID [4:0] $end
$var reg 2 z" Forward1 [1:0] $end
$var reg 2 {" Forward2 [1:0] $end
$var reg 2 |" Forward3 [1:0] $end
$var reg 2 }" Forward4 [1:0] $end
$var reg 2 ~" Forward5 [1:0] $end
$upscope $end
$scope module HAZARD $end
$var wire 1 5" Branch_ID $end
$var wire 1 m MemRead_EX $end
$var wire 1 k MemRead_MEM $end
$var wire 5 !# rd_EX [4:0] $end
$var wire 5 "# rd_MEM [4:0] $end
$var wire 5 ## rs1_ID [4:0] $end
$var wire 5 $# rs2_ID [4:0] $end
$var reg 1 ] PCWrite $end
$var reg 1 I flush_EX_MEM $end
$var reg 1 H flush_ID_EX $end
$var reg 1 G flush_IF_ID $end
$var reg 1 F flush_MEM_WB $end
$var reg 1 - stall_EX_MEM $end
$var reg 1 , stall_ID_EX $end
$var reg 1 + stall_IF_ID $end
$var reg 1 * stall_MEM_WB $end
$upscope $end
$scope module ID_EX $end
$var wire 1 ! clk $end
$var wire 1 " reset $end
$var wire 1 , stall $end
$var wire 226 %# in [225:0] $end
$var reg 226 &# Out [225:0] $end
$upscope $end
$scope module ID_EX_FLUSH $end
$var wire 226 '# in1 [225:0] $end
$var wire 226 (# in2 [225:0] $end
$var wire 1 H select $end
$var reg 226 )# Out [225:0] $end
$upscope $end
$scope module IF_ID $end
$var wire 1 ! clk $end
$var wire 96 *# in [95:0] $end
$var wire 1 " reset $end
$var wire 1 + stall $end
$var reg 96 +# Out [95:0] $end
$upscope $end
$scope module Inst_mem $end
$var wire 7 ,# Ad [6:0] $end
$var wire 1 ! clk $end
$var wire 1 " reset $end
$var reg 32 -# Out [31:0] $end
$var integer 32 .# i [31:0] $end
$upscope $end
$scope module MEM_WB $end
$var wire 1 ! clk $end
$var wire 120 /# in [119:0] $end
$var wire 1 " reset $end
$var wire 1 0# stall $end
$var reg 120 1# Out [119:0] $end
$upscope $end
$scope module MUX1_ID $end
$var wire 32 2# in1 [31:0] $end
$var wire 32 3# in2 [31:0] $end
$var wire 1 q select $end
$var reg 32 4# Out [31:0] $end
$upscope $end
$scope module MUX2_ID $end
$var wire 32 5# in2 [31:0] $end
$var wire 1 D" select $end
$var wire 32 6# in1 [31:0] $end
$var reg 32 7# Out [31:0] $end
$upscope $end
$scope module MUX3_ID $end
$var wire 1 D" select $end
$var wire 32 8# in2 [31:0] $end
$var wire 32 9# in1 [31:0] $end
$var reg 32 :# Out [31:0] $end
$upscope $end
$scope module OP1_MUX $end
$var wire 32 ;# in1 [31:0] $end
$var wire 32 <# in2 [31:0] $end
$var wire 32 =# in4 [31:0] $end
$var wire 2 ># select [1:0] $end
$var wire 32 ?# in3 [31:0] $end
$var reg 32 @# Out [31:0] $end
$upscope $end
$scope module OP2_MUX $end
$var wire 32 A# in1 [31:0] $end
$var wire 32 B# in2 [31:0] $end
$var wire 32 C# in4 [31:0] $end
$var wire 2 D# select [1:0] $end
$var wire 32 E# in3 [31:0] $end
$var reg 32 F# Out [31:0] $end
$upscope $end
$scope module PC $end
$var wire 1 ! clk $end
$var wire 1 ] en $end
$var wire 1 " reset $end
$var wire 32 G# in [31:0] $end
$var reg 32 H# Out [31:0] $end
$upscope $end
$scope module PC_in $end
$var wire 32 I# in1 [31:0] $end
$var wire 32 J# in2 [31:0] $end
$var wire 32 K# in3 [31:0] $end
$var wire 32 L# in4 [31:0] $end
$var wire 2 M# select [1:0] $end
$var reg 32 N# Out [31:0] $end
$upscope $end
$scope module RS2_MUX $end
$var wire 32 O# in1 [31:0] $end
$var wire 32 P# in2 [31:0] $end
$var wire 32 Q# in4 [31:0] $end
$var wire 2 R# select [1:0] $end
$var wire 32 S# in3 [31:0] $end
$var reg 32 T# Out [31:0] $end
$upscope $end
$scope module Reg_File $end
$var wire 5 U# Ad1 [4:0] $end
$var wire 5 V# Ad2 [4:0] $end
$var wire 1 Q Wr $end
$var wire 5 W# WrAd [4:0] $end
$var wire 1 ! clk $end
$var wire 1 " reset $end
$var wire 32 X# WrData [31:0] $end
$var reg 32 Y# Out1 [31:0] $end
$var reg 32 Z# Out2 [31:0] $end
$var integer 32 [# i [31:0] $end
$upscope $end
$scope module WBMUX $end
$var wire 32 \# in1 [31:0] $end
$var wire 32 ]# in2 [31:0] $end
$var wire 32 ^# in3 [31:0] $end
$var wire 32 _# in4 [31:0] $end
$var wire 2 `# select [1:0] $end
$var reg 32 a# Out [31:0] $end
$upscope $end
$scope module branch_comp $end
$var wire 32 b# in1 [31:0] $end
$var wire 32 c# in2 [31:0] $end
$var wire 2 d# type [1:0] $end
$var reg 1 J Out $end
$upscope $end
$scope module imm_gen $end
$var wire 3 e# ImmType [2:0] $end
$var wire 1 M SignExtendCtrl $end
$var wire 25 f# in [31:7] $end
$var wire 32 g# imm [31:0] $end
$var wire 32 h# d [31:0] $end
$var wire 32 i# c [31:0] $end
$var wire 32 j# b [31:0] $end
$var wire 12 k# a [11:0] $end
$scope module SE1 $end
$var wire 1 M signExtend $end
$var wire 32 l# out [31:0] $end
$var wire 12 m# in [11:0] $end
$upscope $end
$scope module SE2 $end
$var wire 20 n# in [19:0] $end
$var wire 1 M signExtend $end
$var wire 32 o# out [31:0] $end
$upscope $end
$scope module SE3 $end
$var wire 5 p# in [4:0] $end
$var wire 1 M signExtend $end
$var wire 32 q# out [31:0] $end
$upscope $end
$scope module m8_12 $end
$var wire 12 r# in1 [11:0] $end
$var wire 12 s# in2 [11:0] $end
$var wire 12 t# in3 [11:0] $end
$var wire 12 u# in4 [11:0] $end
$var wire 12 v# in5 [11:0] $end
$var wire 12 w# in6 [11:0] $end
$var wire 12 x# in7 [11:0] $end
$var wire 12 y# in8 [11:0] $end
$var wire 3 z# select [2:0] $end
$var reg 12 {# Out [11:0] $end
$upscope $end
$scope module m8_32 $end
$var wire 32 |# in1 [31:0] $end
$var wire 32 }# in2 [31:0] $end
$var wire 32 ~# in3 [31:0] $end
$var wire 32 !$ in4 [31:0] $end
$var wire 32 "$ in5 [31:0] $end
$var wire 32 #$ in6 [31:0] $end
$var wire 32 $$ in7 [31:0] $end
$var wire 32 %$ in8 [31:0] $end
$var wire 3 &$ select [2:0] $end
$var reg 32 '$ Out [31:0] $end
$upscope $end
$upscope $end
$upscope $end
$upscope $end
$enddefinitions $end
#0
$dumpvars
bx '$
bx &$
b0 %$
b0 $$
bx #$
bx0 "$
bx000000000000 !$
bx ~#
bx }#
bx0 |#
bx {#
bx z#
b0 y#
b0 x#
b0 w#
b0 v#
b0 u#
bx t#
bx s#
bx r#
bx q#
bx p#
bx o#
bx n#
bx m#
bx l#
bx k#
bx j#
bx i#
bx h#
bx g#
bx f#
bx e#
bx d#
bx c#
bx b#
bx a#
bx `#
b0 _#
bx ^#
bx ]#
bx \#
bx [#
bx Z#
bx Y#
bx X#
bx W#
bx V#
bx U#
bx T#
bx S#
bx R#
b0 Q#
bx P#
bx O#
bx N#
bx M#
b0 L#
bx0 K#
bx J#
bx I#
bx H#
bx G#
bx F#
bx E#
bx D#
b0 C#
bx B#
bx A#
bx @#
bx ?#
bx >#
b0 =#
bx <#
bx ;#
bx :#
bx 9#
bx 8#
bx 7#
bx 6#
bx 5#
bx 4#
b0 3#
bx 2#
bx 1#
00#
bx /#
bx .#
bx -#
bx ,#
bx +#
bx *#
bx )#
b1000100000001000000000000000000000000000000000000000000000000000000000000000000000000000000000000000000000000000000000000000000000000000000000000000000000000000000000000000000000000000000000000000000000000000000000000000 (#
bx '#
bx &#
bx %#
bx $#
bx ##
bx "#
bx !#
bx ~"
bx }"
bx |"
bx {"
bx z"
bx y"
bx x"
bx w"
bx v"
bx u"
bx t"
bx s"
bx r"
0q"
bx p"
bx o"
bx n"
bx m"
bx l"
xk"
xj"
xi"
xh"
xg"
xf"
xe"
xd"
bx c"
xb"
xa"
x`"
x_"
bx ^"
x]"
bx \"
bx ["
bx Z"
xY"
bx X"
bx W"
bx V"
bx U"
b0 T"
bx S"
bx R"
bx Q"
bx P"
bx O"
b0 N"
bx M"
bx L"
bx K"
bx J"
bx I"
bx H"
bx G"
bx F"
xE"
xD"
xC"
xB"
xA"
x@"
x?"
x>"
bx ="
bx <"
bx ;"
bx :"
bx 9"
x8"
bx 7"
x6"
x5"
x4"
x3"
bx 2"
bx 1"
bx 0"
bx /"
bx ."
bx -"
bx ,"
bx +"
bx *"
bx )"
x("
x'"
x&"
x%"
x$"
x#"
x""
x!"
bx ~
bx }
bx |
bx {
bx z
bx y
bx x
bx w
xv
xu
xt
xs
xr
xq
xp
xo
bx n
xm
xl
xk
xj
xi
xh
xg
xf
xe
xd
xc
xb
bx a
bx `
bx _
bx ^
x]
bx \
bx [
bx Z
bx Y
bx X
bx W
bx V
bx U
bx T
bx S
xR
xQ
xP
xO
xN
xM
xL
xK
xJ
xI
xH
xG
xF
bx E
bx D
bx C
bx B
bx A
x@
x?
x>
x=
bx <
bx ;
bx :
bx 9
bx 8
bx 7
bx 6
bx 5
bx 4
bx 3
bx 2
bx 1
bx 0
bx /
bx .
x-
x,
x+
x*
bx )
bx (
bx '
x&
x%
x$
x#
0"
0!
$end
#5000
1!
#10000
0!
#15000
1!
#20000
0!
#25000
1!
#30000
0!
#35000
1!
#40000
0!
#45000
1!
#50000
0!
#55000
1!
#60000
0!
#65000
1!
#70000
0!
#75000
1!
#80000
0!
#85000
1!
#90000
0!
#95000
1!
#100000
0!
1"
#105000
b0 K#
b0 7"
b0 J#
b0 w
b0 8#
b0 g#
b0 '$
b0 ="
b0 J"
b0 |#
b100 (
b100 G#
b100 N#
b0 n
b0 4#
b0 5#
b0 j#
b0 l#
b0 }#
b0 ~#
b0 k#
b0 m#
b0 {#
b10001111010010000000000000000000000000000000000000000000000000000000000000000xxxxxxxxxxxxxxxxxxxxxxxxxxxxxxxxxxxxxxxxxxxxxxxxxxxxxxxxxxxxxxxxxxxxxxxxxxxxxxxxxxxxxxxxxxxxxxxx00000000000000000000000000000000000000000000000 )
b10001111010010000000000000000000000000000000000000000000000000000000000000000xxxxxxxxxxxxxxxxxxxxxxxxxxxxxxxxxxxxxxxxxxxxxxxxxxxxxxxxxxxxxxxxxxxxxxxxxxxxxxxxxxxxxxxxxxxxxxxx00000000000000000000000000000000000000000000000 %#
b10001111010010000000000000000000000000000000000000000000000000000000000000000xxxxxxxxxxxxxxxxxxxxxxxxxxxxxxxxxxxxxxxxxxxxxxxxxxxxxxxxxxxxxxxxxxxxxxxxxxxxxxxxxxxxxxxxxxxxxxxx00000000000000000000000000000000000000000000000 )#
b0 :"
b0 H"
b0 @#
b0 9"
b0 G"
b0 F#
0#
0'"
1?
0q
0u
1M
0h
1l
1d
1Q
b1 {
b1 e#
b1 z#
b1 &$
05"
1@"
0D"
0b"
1k"
0e"
0d"
1j"
0g"
1f"
1h"
1i"
b1 c"
0a"
1`"
0_"
0F
0I
0H
0G
0*
0-
0,
0+
1]
b0 ,"
b0 {"
b0 D#
b0 -"
b0 z"
b0 >#
b0 '
b0 P"
b0 V"
b0 ?#
b0 E#
b0 S#
b0 X#
b0 a#
b0 d#
b0 F"
b0 I"
b0 L"
0#"
b0 D
b0 "$
0]"
b1000111101001 1"
b1000111101001 ^"
b0 \"
b0 ["
b0 r#
b0 s#
b0 t#
b0 i#
b0 o#
b0 n#
b0 h#
b0 q#
b0 #$
b0 p#
b0 !$
0$
0%
b0 7
b0 w"
b0 ##
b0 U#
b0 3
b0 y"
b0 $#
b0 V#
b0 ;
b0 ."
b0 Z"
b0 A
b0 f#
0$"
0("
b0 E
b0 K"
0E"
0A"
06"
b0 |
0R
0e
0m
0i
0N
b0 M#
0v
0r
0@
b0 l"
0""
0&"
b0 C
0C"
0?"
04"
b0 z
0P
0c
0k
0g
0L
0t
0p
0>
0!"
0%"
b0 B
0B"
0>"
03"
b0 y
0O
0b
0j
0f
0K
b0 `#
0s
0o
0=
b0 ,#
b0 ~
b0 V
b0 2#
b10001111010010000000000000000000000000000000000000000000000000000000000000000xxxxxxxxxxxxxxxxxxxxxxxxxxxxxxxxxxxxxxxxxxxxxxxxxxxxxxxxxxxxxxxxxxxxxxxxxxxxxxxxxxxxxxxxxxxxxxxx00000000000000000000000000000000000000000000000 '#
b0 [
b0 4
b0 x"
b0 8
b0 v"
b0 <
b0 s"
b0 !#
b0 x
b0 1
b0 _
b0 A#
b0 a
b0 ;#
b0 O#
b0 \
b0 W
b0xxxxxxxxxxxxxxxxxxxxxxxxxxxxxxxx00000 p"
b0 2"
b0 :
b0 t"
b0 "#
b0 /
b0 m"
b0 <"
b0 M"
b0 S"
b0 <#
b0 B#
b0 P#
b0 Y
b0xxxxxxxxxxxxxxxxxxxxxxxxxxxxxxxx00000 /#
b0 0"
b0 9
b0 u"
b0 W#
b0 S
b0 ^#
b0 ;"
b0 \#
b0 X
b0 ]#
b0 /"
b10000000000000000000000000000000000xxxxxxxxxxxxxxxxxxxxxxxxxxxxxxxx *#
b100 Z
b100 I#
b0 U
b0 H#
b0 +#
b0 &#
b0 r"
b0 1#
b10000000 .#
b100000 [#
b100000 o"
1!
#110000
0!
#115000
b1000111101001000000000000000000000000000000000000000000000000000000000000000000000000000000000000000000000000000000000000000000000000000000000000000000000000000000000000000000000000000000000000000000000000000000000000000 )
b1000111101001000000000000000000000000000000000000000000000000000000000000000000000000000000000000000000000000000000000000000000000000000000000000000000000000000000000000000000000000000000000000000000000000000000000000000 %#
b1000111101001000000000000000000000000000000000000000000000000000000000000000000000000000000000000000000000000000000000000000000000000000000000000000000000000000000000000000000000000000000000000000000000000000000000000000 )#
b0 ^
b0 :#
b0 `
b0 7#
b1000111101001000000000000000000000000000000000000000000000000000000000000000000000000000000000000000000000000000000000000000000000000000000000000000000000000000000000000000000000000000000000000000000000000000000000000000 '#
b0 0
b0 W"
b0 9#
b0 Z#
b0 5
b0 Q"
b0 6#
b0 Y#
b100000 o"
b100000 [#
b10000000 .#
1!
#120000
0!
#125000
b10000000 .#
b100000 [#
b100000 o"
1!
#130000
0!
0"
#135000
08"
bx 7"
bx J#
bx w
bx 8#
bx g#
bx '$
0Y"
bx0 |#
1J
bx j#
bx l#
bx }#
bx ~#
bx k#
bx m#
bx {#
bx0xxx010001111010010000000000000000000000000000000000000000000000000000000000000100000000000000000000000000000000000000000000000000000000000000000000000000000000000000000000000000xxxxxxxxxxxxxxxxxxxxxxxxxxxxxxxxxxxxxxxxxxxxxxx )
bx0xxx010001111010010000000000000000000000000000000000000000000000000000000000000100000000000000000000000000000000000000000000000000000000000000000000000000000000000000000000000000xxxxxxxxxxxxxxxxxxxxxxxxxxxxxxxxxxxxxxxxxxxxxxx %#
bx0xxx010001111010010000000000000000000000000000000000000000000000000000000000000100000000000000000000000000000000000000000000000000000000000000000000000000000000000000000000000000xxxxxxxxxxxxxxxxxxxxxxxxxxxxxxxxxxxxxxxxxxxxxxx )#
b1000 (
b1000 G#
b1000 N#
bx d#
1$
x#"
bx D
bx0 "$
x]"
bx0xxx01000111101001 1"
bx0xxx01000111101001 ^"
bx \"
bx ["
bx r#
bx s#
bx t#
bx i#
bx o#
bx n#
bx h#
bx q#
bx #$
bx p#
bx000000000000 !$
1A"
b1 |
1R
1e
1m
1N
1@
bx 7
bx w"
bx ##
bx U#
bx 3
bx y"
bx $#
bx V#
bx ;
bx ."
bx Z"
bx A
bx f#
1&
bx S
bx ^#
bx /
bx m"
b10001111010010000000000000000000000000000000000000000000000000000000000000000xxxxxxxxxxxxxxxxxxxxxxxxxxxxxxxx00000 p"
b1000111101001 2"
bx ~
bx0xxx010001111010010000000000000000000000000000000000000000000000000000000000000100000000000000000000000000000000000000000000000000000000000000000000000000000000000000000000000000xxxxxxxxxxxxxxxxxxxxxxxxxxxxxxxxxxxxxxxxxxxxxxx '#
b100 [
b100 ,#
b0xxxxxxxxxxxxxxxxxxxxxxxxxxxxxxxx00000 1#
b0xxxxxxxxxxxxxxxxxxxxxxxxxxxxxxxx00000 r"
b1000111101001000000000000000000000000000000000000000000000000000000000000000000000000000000000000000000000000000000000000000000000000000000000000000000000000000000000000000000000000000000000000000000000000000000000000000 &#
b10000000000000000000000000000000000xxxxxxxxxxxxxxxxxxxxxxxxxxxxxxxx +#
b10011 }
b10011 -#
b10000000000000000000000000000000010000000000000000000000000000010011 *#
b1000 Z
b1000 I#
b100 U
b100 H#
1!
#140000
0!
#145000
x8"
b100 7"
b100 J#
b0 w
b0 8#
b0 g#
b0 '$
xY"
b0 |#
0l
0d
xJ
b0 j#
b0 l#
b0 }#
b0 ~#
b0 k#
b0 m#
b0 {#
0f"
0h"
b100 n
b100 4#
b100 5#
b1100 (
b1100 G#
b1100 N#
b10001100010010000000000000000000000000000010000000000000000000000000000001000xxxxxxxxxxxxxxxxxxxxxxxxxxxxxxxxxxxxxxxxxxxxxxxxxxxxxxxxxxxxxxxxxxxxxxxxxxxxxxxxxxxxxxxxxxxxxxxx00000000000000000000000000000000000000000000000 )
b10001100010010000000000000000000000000000010000000000000000000000000000001000xxxxxxxxxxxxxxxxxxxxxxxxxxxxxxxxxxxxxxxxxxxxxxxxxxxxxxxxxxxxxxxxxxxxxxxxxxxxxxxxxxxxxxxxxxxxxxxx00000000000000000000000000000000000000000000000 %#
b10001100010010000000000000000000000000000010000000000000000000000000000001000xxxxxxxxxxxxxxxxxxxxxxxxxxxxxxxxxxxxxxxxxxxxxxxxxxxxxxxxxxxxxxxxxxxxxxxxxxxxxxxxxxxxxxxxxxxxxxxx00000000000000000000000000000000000000000000000 )#
bx ^
bx :#
bx `
bx 7#
b0 d#
0#"
b0 D
b0 "$
0]"
b1000110001001 1"
b1000110001001 ^"
b0 \"
b100 ["
b0 r#
b0 s#
b0 t#
b0 i#
b0 o#
b0 n#
b0 h#
b0 q#
b0 #$
b0 p#
b0 !$
b0 7
b0 w"
b0 ##
b0 U#
b0 3
b0 y"
b0 $#
b0 V#
b0 ;
b100 ."
b100 Z"
b0 A
b0 f#
x$"
bx E
bx K"
1?"
b1 z
1P
1c
1k
1L
1>
b1000 ,#
b10011 ~
b100 V
b100 2#
b1000 [
bx 4
bx x"
bx 8
bx v"
bx <
bx s"
bx !#
bx x
b100 \
bx0xxx010001111010010000000000000000000000000000010000000000000000000000000000000000xxxxxxxxxxxxxxxxxxxxxxxxxxxxxxxxxxxxx p"
bx0xxx01000111101001 2"
b10001111010010000000000000000000000000000000000000000000000000000000000000000xxxxxxxxxxxxxxxxxxxxxxxxxxxxxxxx00000 /#
b1000111101001 0"
b11000000000000000000000000000000100000000000000000000000000000010011 *#
b1100 Z
b1100 I#
b1000 U
b1000 H#
b10000000000000000000000000000000010000000000000000000000000000010011 +#
b10001100010010000000000000000000000000000010000000000000000000000000000001000xxxxxxxxxxxxxxxxxxxxxxxxxxxxxxxxxxxxxxxxxxxxxxxxxxxxxxxxxxxxxxxxxxxxxxxxxxxxxxxxxxxxxxxxxxxxxxxx00000000000000000000000000000000000000000000000 '#
bx 0
bx W"
bx 9#
bx Z#
bx 5
bx Q"
bx 6#
bx Y#
bx0xxx010001111010010000000000000000000000000000000000000000000000000000000000000100000000000000000000000000000000000000000000000000000000000000000000000000000000000000000000000000xxxxxxxxxxxxxxxxxxxxxxxxxxxxxxxxxxxxxxxxxxxxxxx &#
b10001111010010000000000000000000000000000000000000000000000000000000000000000xxxxxxxxxxxxxxxxxxxxxxxxxxxxxxxx00000 r"
1!
#150000
0!
